{
  "presets": [
    [
      "@babel/preset-env",
      {
        "targets": {
          "edge": "12",
          "firefox": "40",
          "chrome": "41",
          "safari": "9",
          "ie": "11"
        },
        "useBuiltIns": "usage",
        "corejs": "3.8.0"
      }
    ]
  ]
}